module gitlab.com/gitlab-org/release-tools/metrics

go 1.18

require (
	github.com/gorilla/mux v1.8.0
	github.com/prometheus/client_golang v1.14.0
	github.com/sirupsen/logrus v1.9.0
	github.com/stretchr/testify v1.8.1
	github.com/xanzy/go-gitlab v0.79.1
	gitlab.com/gitlab-org/labkit v1.17.0
)

require (
	github.com/beorn7/perks v1.0.1 // indirect
	github.com/cespare/xxhash/v2 v2.1.2 // indirect
	github.com/client9/reopen v1.0.0 // indirect
	github.com/davecgh/go-spew v1.1.1 // indirect
	github.com/golang/protobuf v1.5.2 // indirect
	github.com/google/go-querystring v1.1.0 // indirect
	github.com/hashicorp/go-cleanhttp v0.5.2 // indirect
	github.com/hashicorp/go-retryablehttp v0.7.1 // indirect
	github.com/matttproud/golang_protobuf_extensions v1.0.1 // indirect
	github.com/oklog/ulid/v2 v2.0.2 // indirect
	github.com/pmezard/go-difflib v1.0.0 // indirect
	github.com/prometheus/client_model v0.3.0 // indirect
	github.com/prometheus/common v0.37.0 // indirect
	github.com/prometheus/procfs v0.8.0 // indirect
	github.com/sebest/xff v0.0.0-20210106013422-671bd2870b3a // indirect
	github.com/stretchr/objx v0.5.0 // indirect
	golang.org/x/net v0.4.0 // indirect
	golang.org/x/oauth2 v0.3.0 // indirect
	golang.org/x/sys v0.3.0 // indirect
	golang.org/x/time v0.3.0 // indirect
	google.golang.org/appengine v1.6.7 // indirect
	google.golang.org/protobuf v1.28.1 // indirect
	gopkg.in/yaml.v3 v3.0.1 // indirect
)
